Análisis Exploratorio de Datos de la Premier League 2021/2022
…
3.4.3. Análisis de la variable Nation (Nacionalidad del jugador).

A. Frecuencias Absolutas y Relativas.

frecuencias_nation <- datos %>%
  group_by(Nation) %>%
  summarise(
    Frecuencia_Absoluta = n(),
    Frecuencia_Relativa = n() / nrow(datos) * 100
  ) %>%
  arrange(desc(Frecuencia_Absoluta))
print(frecuencias_nation)

# A tibble: 67 × 3
   Nation Frecuencia_Absoluta Frecuencia_Relativa
   <fct>                <int>               <dbl>
 1 engENG                 277               40.1 
 2 frFRA                   37                5.35
 3 esESP                   34                4.92
 4 brBRA                   29                4.20
 5 sctSCO                  27                3.91
 6 ieIRL                   24                3.47
 7 ptPOR                   22                3.18
 8 nlNED                   19                2.75
 9 wlsWAL                  17                2.46
10 dkDEN                   15                2.17
# ℹ 57 more rows
…
